kennung_typ;kennung;person_kennung;rolle
veranstaltung;mwinf21oa-se;2222;teilnehmer
veranstaltung;mwinf21oa-se;1111;teilnehmer
veranstaltung;mwinf21oa-se;M1;berechtigter
veranstaltung;mwinf21oa-ma;2222;teilnehmer
veranstaltung;mwinf21oa-ma;M1;berechtigter
veranstaltung;mwinf21oa-ma;4455;teilnehmer
veranstaltung;mwinf21oa-ma;6621;teilnehmer
veranstaltung;mwinf21oa-ma;4551;teilnehmer
