"Name";"Vorname";"Matrikelnummer";"Mi. 17.07.2024";"Do. 18.07.2024";"Fr. 19.07.2024"
"Berg";"Elias";"39274";"";"";""
"Brandt";"Sophie";"48532";"";"";""
"Hartmann";"Lara";"73928";"";"";""
"Jäger";"Hannah";"98532";"";"";""
"Meyer";"Anna";"31924";"";"";""
"Peters";"Sarah";"74832";"";"";""
"Schreiber";"Felix";"52984";"";"";""
"Schuster";"Emma";"39487";"";"";""
"Seidel";"Max";"23894";"";"";""
"Werner";"Julian";"73921";"";"";""
"Winkler";"Finn";"74928";"";"";""
"Wolff";"Jakob";"29475";"";"";""
