kennung;vorname;nachname;ausweis_kennung
17263;Peter;Rudolf;A1
31242;Anna;Stephens;A2
43142;Nadine;Müller;A4
62478;Peter;Fux;A3
10847;Frauke;Müller;A5
56784;Sophie;Schmidt;A6
73219;Max;Meier;A7
95463;Laura;Schulz;A9
29547;Anna;Wolf;A10
87425;Finn;Becker;A11
65231;Hannah;Schneider;A12
47389;Lena;Hofmann;A13
62947;Julia;Herrmann;A14
82356;David;Graf;A15
39482;Sarah;Lehmann;A16
71824;Daniel;Schneider;A17
65291;Hannah;Weber;A18
18472;Maximilian;Schmitt;A19
53698;Lea;Mayer;A20
47192;Luisa;Hermann;A21
82564;Philipp;Werner;A22
48123;Emma;Walter;A23
91547;Jonas;Köhler;A24
83215;Emily;Bergmann;A25
73691;Marie;Hartmann;A27
29384;Tobias;Schwarz;A28
74921;Leon;Huber;A29
57294;Anna;Lang;A30
95247;David;Bayer;A31
61548;Sophie;Stein;A32
74912;Julian;Kühn;A33
52834;Emma;Krause;A34
74129;Finn;Lange;A35
49187;Hannah;Vogel;A36
38294;Leon;Bach;A37
62974;Emily;Krüger;A38
74821;Paul;Kaiser;A39
73592;Lena;Schreiber;A40
17364;Jonas;Zimmermann;A41
81947;Sophie;Schubert;A43
39489;Laura;Franke;A45
28394;Felix;Hoffmann;A46
73924;Amelie;Wagner;A47
92384;David;Schulze;A48
58924;Luisa;Möller;A49
45932;Moritz;Hofmann;A50
72894;Mia;Schmid;A51
35921;Anna;Bayer;A52
73294;Max;Jung;A53
43928;Julia;Lorenz;A54
74923;Tim;Beck;A55
62548;Lea;Schulze;A56
48739;Paul;Hansen;A57
38296;Sophie;Friedrich;A58
59247;David;Kraus;A59
75824;Lena;Richter;A60
49528;Laura;Kühn;A61
74928;Finn;Winkler;A62
39487;Emma;Schuster;A63
23894;Max;Seidel;A64
73928;Lara;Hartmann;A65
39274;Elias;Berg;A66
98532;Hannah;Jäger;A67
52984;Felix;Schreiber;A68
31924;Anna;Meyer;A69
29475;Jakob;Wolff;A70
48532;Sophie;Brandt;A71
73921;Julian;Werner;A72
74832;Sarah;Peters;A73
52748;Nico;Günther;A74
29874;Emilia;Walter;A75
74929;Paul;Schwarz;A76
12548;Emma;Schneider;A77
35789;Maximilian;Müller;A78
96432;Sophie;Fischer;A79
74125;Felix;Hoffmann;A80
35897;Lena;Wagner;A82
69321;Tim;Becker;A83
42156;Anna;Schulze;A84
78965;David;Weber;A85
M1231;Leon;Becker;A86
M4452;Julia;Hoffmann;A87
M2342;Sophie;Schneider;A88
M7694;Felix;Mayer;A89
M8791;Lena;Herrmann;A90
M6617;David;Schulze;A91
M9100;Anna;Müller;A92
M7611;Maximilian;Schmidt;A93
